Assignment-3/Assignment_3/mips.vcd
$date
	Sun May 24 01:44:18 2026
$end
$version
	Icarus Verilog
$end
$timescale
	1ps
$end
$scope module mips_tb $end
$var wire 32 ! pc_out [31:0] $end
$var wire 32 " alu_result [31:0] $end
$var reg 1 # clk $end
$var reg 1 $ rst_n $end
$scope module uut $end
$var wire 1 # clk $end
$var wire 1 $ rst_n $end
$var wire 1 % reg_write $end
$var wire 1 & reg_dst $end
$var wire 32 ' pc_out [31:0] $end
$var wire 1 ( mem_write $end
$var wire 1 ) mem_to_reg $end
$var wire 32 * instr [31:0] $end
$var wire 1 + branch $end
$var wire 1 , alu_src $end
$var wire 32 - alu_result [31:0] $end
$var wire 3 . alu_ctrl [2:0] $end
$scope module u_control $end
$var wire 6 / funct [5:0] $end
$var wire 6 0 opcode [5:0] $end
$var wire 1 % reg_write $end
$var wire 1 & reg_dst $end
$var wire 1 ( mem_write $end
$var wire 1 ) mem_to_reg $end
$var wire 1 + branch $end
$var wire 1 , alu_src $end
$var wire 2 1 alu_op [1:0] $end
$var wire 3 2 alu_ctrl [2:0] $end
$scope module u_alu_dec $end
$var wire 6 3 funct [5:0] $end
$var wire 2 4 alu_op [1:0] $end
$var reg 3 5 alu_ctrl [2:0] $end
$upscope $end
$scope module u_main_dec $end
$var wire 6 6 opcode [5:0] $end
$var wire 1 % reg_write $end
$var wire 1 & reg_dst $end
$var wire 1 ( mem_write $end
$var wire 1 ) mem_to_reg $end
$var wire 1 + branch $end
$var wire 1 , alu_src $end
$var wire 2 7 alu_op [1:0] $end
$var reg 8 8 controls [7:0] $end
$upscope $end
$upscope $end
$scope module u_datapath $end
$var wire 3 9 alu_ctrl [2:0] $end
$var wire 1 , alu_src $end
$var wire 1 + branch $end
$var wire 1 # clk $end
$var wire 32 : instr_out [31:0] $end
$var wire 1 ) mem_to_reg $end
$var wire 1 ( mem_write_en $end
$var wire 32 ; pc_out [31:0] $end
$var wire 1 < pc_src $end
$var wire 1 & reg_dst $end
$var wire 1 % reg_write_en $end
$var wire 1 $ rst_n $end
$var wire 1 = zero_flag $end
$var wire 5 > write_reg [4:0] $end
$var wire 32 ? src_b [31:0] $end
$var wire 32 @ sign_imm [31:0] $end
$var wire 32 A result [31:0] $end
$var wire 32 B read_data [31:0] $end
$var wire 32 C rd2 [31:0] $end
$var wire 32 D rd1 [31:0] $end
$var wire 32 E pc_plus4 [31:0] $end
$var wire 32 F pc [31:0] $end
$var wire 32 G instr [31:0] $end
$var wire 32 H branch_target [31:0] $end
$var wire 32 I alu_result [31:0] $end
$scope module u_alu $end
$var wire 3 J alu_ctrl [2:0] $end
$var wire 32 K src_b [31:0] $end
$var wire 1 = zero $end
$var wire 32 L src_a [31:0] $end
$var reg 32 M result [31:0] $end
$upscope $end
$scope module u_data_mem $end
$var wire 32 N addr [31:0] $end
$var wire 1 # clk $end
$var wire 1 ( mem_write_en $end
$var wire 32 O read_data [31:0] $end
$var wire 32 P write_data [31:0] $end
$upscope $end
$scope module u_if_stage $end
$var wire 32 Q branch_target [31:0] $end
$var wire 1 # clk $end
$var wire 32 R current_pc [31:0] $end
$var wire 1 < pc_src $end
$var wire 1 $ rst_n $end
$var wire 32 S pc_plus4 [31:0] $end
$var wire 32 T pc_next [31:0] $end
$var wire 32 U pc [31:0] $end
$var wire 32 V instr [31:0] $end
$scope module u_imem $end
$var wire 32 W rd [31:0] $end
$var wire 32 X addr [31:0] $end
$upscope $end
$scope module u_pc $end
$var wire 1 # clk $end
$var wire 32 Y pc_next [31:0] $end
$var wire 1 $ rst_n $end
$var reg 32 Z pc [31:0] $end
$upscope $end
$upscope $end
$scope module u_reg_file $end
$var wire 1 # clk $end
$var wire 5 [ ra1 [4:0] $end
$var wire 5 \ ra2 [4:0] $end
$var wire 5 ] wa3 [4:0] $end
$var wire 32 ^ wd3 [31:0] $end
$var wire 1 % we3 $end
$var wire 32 _ rd2 [31:0] $end
$var wire 32 ` rd1 [31:0] $end
$upscope $end
$upscope $end
$upscope $end
$upscope $end
$enddefinitions $end
#0
$dumpvars
b0 `
bx _
b1010 ^
b1 ]
b1 \
b0 [
b0 Z
b100 Y
b0 X
b100000000000010000000000001010 W
b100000000000010000000000001010 V
b0 U
b100 T
b100 S
b0 R
b101100 Q
bx P
bx O
b1010 N
b1010 M
b0 L
b1010 K
b10 J
b1010 I
b101100 H
b100000000000010000000000001010 G
b0 F
b100 E
b0 D
bx C
bx B
b1010 A
b1010 @
b1010 ?
b1 >
0=
0<
b0 ;
b100000000000010000000000001010 :
b10 9
b10100000 8
b0 7
b1000 6
b10 5
b0 4
b1010 3
b10 2
b0 1
b1000 0
b1010 /
b10 .
b1010 -
1,
0+
b100000000000010000000000001010 *
0)
0(
b0 '
0&
1%
0$
0#
b1010 "
b0 !
$end
#5000
b1010 C
b1010 P
b1010 _
1#
#10000
0#
1$
#15000
b101 A
b101 ^
b101 "
b101 -
b101 I
b101 M
b101 N
b101 ?
b101 K
bx C
bx P
bx _
b10 >
b10 ]
b101 @
b10 \
b101 /
b101 3
b100000000000100000000000000101 *
b100000000000100000000000000101 :
b100000000000100000000000000101 G
b100000000000100000000000000101 V
b100000000000100000000000000101 W
b1000 T
b1000 Y
b1000 S
b11100 H
b11100 Q
b1000 E
b100 !
b100 '
b100 ;
b100 F
b100 R
b100 U
b100 X
b100 Z
1#
#20000
0#
#25000
b1111 A
b1111 ^
b11 >
b11 ]
b1111 "
b1111 -
b1111 I
b1111 M
b1111 N
1&
0,
b10 1
b10 4
b10 7
b101 ?
b101 K
b1010 D
b1010 L
b1010 `
b11000010 8
b1100000100000 @
b1 [
b100000 /
b100000 3
b0 0
b0 6
b101 C
b101 P
b101 _
b1000100001100000100000 *
b1000100001100000100000 :
b1000100001100000100000 G
b1000100001100000100000 V
b1000100001100000100000 W
b1100 T
b1100 Y
b1100 S
b110000010001100 H
b110000010001100 Q
b1100 E
b1000 !
b1000 '
b1000 ;
b1000 F
b1000 R
b1000 U
b1000 X
b1000 Z
1#
#30000
0#
#35000
b1 .
b1 2
b1 5
b1 9
b1 J
b1111 ?
b1111 K
0&
1,
b11 1
b11 4
b11 7
b1111 C
b1111 P
b1111 _
b11 >
b11 ]
b10100011 8
b1111 @
b11 \
b1111 /
b1111 3
b1101 0
b1101 6
b110100001000110000000000001111 *
b110100001000110000000000001111 :
b110100001000110000000000001111 G
b110100001000110000000000001111 V
b110100001000110000000000001111 W
b10000 T
b10000 Y
b10000 S
b1001100 H
b1001100 Q
b10000 E
b1100 !
b1100 '
b1100 ;
b1100 F
b1100 R
b1100 U
b1100 X
b1100 Z
1#
#40000
0#
#45000
b101 A
b101 ^
b110 .
b110 2
b110 5
b110 9
b110 J
b101 "
b101 -
b101 I
b101 M
b101 N
1&
0,
b10 1
b10 4
b10 7
b101 ?
b101 K
b101 C
b101 P
b101 _
b100 >
b100 ]
b11000010 8
b10000000100010 @
b10 \
b100010 /
b100010 3
b0 0
b0 6
b1000100010000000100010 *
b1000100010000000100010 :
b1000100010000000100010 G
b1000100010000000100010 V
b1000100010000000100010 W
b10100 T
b10100 Y
b10100 S
b1000000010011100 H
b1000000010011100 Q
b10100 E
b10000 !
b10000 '
b10000 ;
b10000 F
b10000 R
b10000 U
b10000 X
b10000 Z
1#
#50000
0#
#55000
b0 A
b0 ^
1=
b0 "
b0 -
b0 I
b0 M
b0 N
b101 >
b101 ]
b0 .
b0 2
b0 5
b0 9
b0 J
b10100000100100 @
b100100 /
b100100 3
b1000100010100000100100 *
b1000100010100000100100 :
b1000100010100000100100 G
b1000100010100000100100 V
b1000100010100000100100 W
b11000 T
b11000 Y
b11000 S
b1010000010101000 H
b1010000010101000 Q
b11000 E
b10100 !
b10100 '
b10100 ;
b10100 F
b10100 R
b10100 U
b10100 X
b10100 Z
1#
#60000
0#
#65000
b1111 A
b1111 ^
0=
b1111 "
b1111 -
b1111 I
b1111 M
b1111 N
b110 >
b110 ]
b1 .
b1 2
b1 5
b1 9
b1 J
b11000000100101 @
b100101 /
b100101 3
b1000100011000000100101 *
b1000100011000000100101 :
b1000100011000000100101 G
b1000100011000000100101 V
b1000100011000000100101 W
b11100 T
b11100 Y
b11100 S
b1100000010110000 H
b1100000010110000 Q
b11100 E
b11000 !
b11000 '
b11000 ;
b11000 F
b11000 R
b11000 U
b11000 X
b11000 Z
1#
#70000
0#
#75000
b0 A
b0 ^
1=
b0 "
b0 -
b0 I
b0 M
b0 N
b111 >
b111 ]
b111 .
b111 2
b111 5
b111 9
b111 J
b11100000101010 @
b101010 /
b101010 3
b1000100011100000101010 *
b1000100011100000101010 :
b1000100011100000101010 G
b1000100011100000101010 V
b1000100011100000101010 W
b100000 T
b100000 Y
b100000 S
b1110000011001000 H
b1110000011001000 Q
b100000 E
b11100 !
b11100 '
b11100 ;
b11100 F
b11100 R
b11100 U
b11100 X
b11100 Z
1#
#80000
0#
#85000
b110010 A
b110010 ^
b110010 ?
b110010 K
0=
b110010 "
b110010 -
b110010 I
b110010 M
b110010 N
0%
0&
1,
1(
b0 1
b0 4
b0 7
b1111 C
b1111 P
b1111 _
b0 D
b0 L
b0 `
b11 >
b11 ]
b10 .
b10 2
b10 5
b10 9
b10 J
b101000 8
b110010 @
b11 \
b0 [
b110010 /
b110010 3
b101011 0
b101011 6
b10101100000000110000000000110010 *
b10101100000000110000000000110010 :
b10101100000000110000000000110010 G
b10101100000000110000000000110010 V
b10101100000000110000000000110010 W
b100100 T
b100100 Y
b100100 S
b11101100 H
b11101100 Q
b100100 E
b100000 !
b100000 '
b100000 ;
b100000 F
b100000 R
b100000 U
b100000 X
b100000 Z
1#
#90000
0#
#95000
b1111 A
b1111 ^
1%
0(
1)
b0 C
b0 P
b0 _
b111 >
b111 ]
b10100100 8
b111 \
b100011 0
b100011 6
b10001100000001110000000000110010 *
b10001100000001110000000000110010 :
b10001100000001110000000000110010 G
b10001100000001110000000000110010 V
b10001100000001110000000000110010 W
b101000 T
b101000 Y
b1111 B
b1111 O
b101000 S
b11110000 H
b11110000 Q
b101000 E
b100100 !
b100100 '
b100100 ;
b100100 F
b100100 R
b100100 U
b100100 X
b100100 Z
1#
#100000
0#
#105000
bx B
bx O
b0 A
b0 ^
1=
b0 "
b0 -
b0 I
b0 M
b0 N
1&
0,
0)
b10 1
b10 4
b10 7
b0 ?
b0 K
b0 >
b0 ]
b11000010 8
b0 @
b0 \
b0 /
b0 3
b0 0
b0 6
b0 C
b0 P
b0 _
b0 *
b0 :
b0 G
b0 V
b0 W
b101100 T
b101100 Y
b101100 S
b101100 H
b101100 Q
b101100 E
b101000 !
b101000 '
b101000 ;
b101000 F
b101000 R
b101000 U
b101000 X
b101000 Z
1#
#110000
0#
#115000
b110000 T
b110000 Y
b110000 S
b110000 H
b110000 Q
b110000 E
b101100 !
b101100 '
b101100 ;
b101100 F
b101100 R
b101100 U
b101100 X
b101100 Z
1#
#120000
0#
#125000
b110100 T
b110100 Y
b110100 S
b110100 H
b110100 Q
b110100 E
b110000 !
b110000 '
b110000 ;
b110000 F
b110000 R
b110000 U
b110000 X
b110000 Z
1#
#130000
0#
#135000
bx A
bx ^
bx ?
bx K
x=
bx "
bx -
bx I
bx M
bx N
0%
0&
b0 1
b0 4
b0 7
bx C
bx P
bx _
bx D
bx L
bx `
bx >
bx ]
b0 8
bx @
bx \
bx [
bx /
bx 3
bx 0
bx 6
bx *
bx :
bx G
bx V
bx W
b111000 T
b111000 Y
b111000 S
bx H
bx Q
b111000 E
b110100 !
b110100 '
b110100 ;
b110100 F
b110100 R
b110100 U
b110100 X
b110100 Z
1#
#140000
0#
#145000
b111100 T
b111100 Y
b111100 S
b111100 E
b111000 !
b111000 '
b111000 ;
b111000 F
b111000 R
b111000 U
b111000 X
b111000 Z
1#
