assignment-4/mips.vcd
$date
	Sun Jun 07 19:07:58 2026
$end
$version
	Icarus Verilog
$end
$timescale
	1ps
$end
$scope module mips_tb $end
$var wire 32 ! t0 [31:0] $end
$var wire 32 " t1 [31:0] $end
$var wire 32 # t2 [31:0] $end
$var wire 32 $ pc_out [31:0] $end
$var wire 32 % alu_result [31:0] $end
$var reg 1 & clk $end
$var reg 1 ' rst_n $end
$scope module uut $end
$var wire 1 & clk $end
$var wire 1 ' rst_n $end
$var wire 5 ( write_reg_W [4:0] $end
$var wire 5 ) write_reg_M [4:0] $end
$var wire 5 * write_reg_E [4:0] $end
$var wire 1 + stall_F $end
$var wire 1 , stall_D $end
$var wire 5 - rt_E [4:0] $end
$var wire 5 . rt_D [4:0] $end
$var wire 5 / rs_E [4:0] $end
$var wire 5 0 rs_D [4:0] $end
$var wire 1 1 reg_write_W $end
$var wire 1 2 reg_write_M $end
$var wire 1 3 reg_write_E $end
$var wire 1 4 reg_write_D $end
$var wire 1 5 reg_dst_D $end
$var wire 32 6 pc_out [31:0] $end
$var wire 1 7 mem_write_D $end
$var wire 1 8 mem_to_reg_M $end
$var wire 1 9 mem_to_reg_E $end
$var wire 1 : mem_to_reg_D $end
$var wire 1 ; jump_D $end
$var wire 32 < instr_D [31:0] $end
$var wire 2 = forward_b_E [1:0] $end
$var wire 2 > forward_b_D [1:0] $end
$var wire 2 ? forward_a_E [1:0] $end
$var wire 2 @ forward_a_D [1:0] $end
$var wire 1 A flush_E $end
$var wire 1 B branch_D $end
$var wire 1 C alu_src_D $end
$var wire 32 D alu_result [31:0] $end
$var wire 3 E alu_ctrl_D [2:0] $end
$scope module u_control $end
$var wire 6 F funct [5:0] $end
$var wire 6 G opcode [5:0] $end
$var wire 1 4 reg_write $end
$var wire 1 5 reg_dst $end
$var wire 1 7 mem_write $end
$var wire 1 : mem_to_reg $end
$var wire 1 ; jump $end
$var wire 1 B branch $end
$var wire 1 C alu_src $end
$var wire 2 H alu_op [1:0] $end
$var wire 3 I alu_ctrl [2:0] $end
$scope module u_alu_dec $end
$var wire 6 J funct [5:0] $end
$var wire 2 K alu_op [1:0] $end
$var reg 3 L alu_ctrl [2:0] $end
$upscope $end
$scope module u_main_dec $end
$var wire 6 M opcode [5:0] $end
$var wire 1 4 reg_write $end
$var wire 1 5 reg_dst $end
$var wire 1 7 mem_write $end
$var wire 1 : mem_to_reg $end
$var wire 1 ; jump $end
$var wire 1 B branch $end
$var wire 1 C alu_src $end
$var wire 2 N alu_op [1:0] $end
$var reg 10 O controls [9:0] $end
$upscope $end
$upscope $end
$scope module u_datapath $end
$var wire 3 P alu_ctrl_D [2:0] $end
$var wire 32 Q alu_result_M_wire [31:0] $end
$var wire 32 R alu_result_out [31:0] $end
$var wire 1 C alu_src_D $end
$var wire 1 B branch_D $end
$var wire 1 & clk $end
$var wire 1 ; jump_D $end
$var wire 1 : mem_to_reg_D $end
$var wire 1 7 mem_write_D $end
$var wire 32 S pc_out [31:0] $end
$var wire 1 T pc_src_D $end
$var wire 1 5 reg_dst_D $end
$var wire 1 4 reg_write_D $end
$var wire 1 2 reg_write_M $end
$var wire 1 1 reg_write_W $end
$var wire 1 U reg_write_W_wire $end
$var wire 5 V rs_E [4:0] $end
$var wire 1 ' rst_n $end
$var wire 5 W write_reg_E [4:0] $end
$var wire 5 X write_reg_W [4:0] $end
$var wire 5 Y write_reg_W_wire [4:0] $end
$var wire 1 Z zero_E $end
$var wire 5 [ write_reg_M [4:0] $end
$var wire 5 \ write_reg_E_wire [4:0] $end
$var wire 1 + stall_F $end
$var wire 1 , stall_D $end
$var wire 32 ] src_b_E_temp [31:0] $end
$var wire 32 ^ src_b_E_final [31:0] $end
$var wire 32 _ src_b_D [31:0] $end
$var wire 32 ` src_a_E_final [31:0] $end
$var wire 32 a src_a_D [31:0] $end
$var wire 32 b sign_imm_D [31:0] $end
$var wire 5 c rt_E [4:0] $end
$var wire 5 d rt_D [4:0] $end
$var wire 5 e rs_D [4:0] $end
$var wire 32 f result_W [31:0] $end
$var wire 1 3 reg_write_E $end
$var wire 32 g read_data_M [31:0] $end
$var wire 32 h rd2_D [31:0] $end
$var wire 32 i rd1_D [31:0] $end
$var wire 32 j pc_plus4_F [31:0] $end
$var wire 32 k pc_next_F [31:0] $end
$var wire 32 l pc_branch_D [31:0] $end
$var wire 32 m pc_F [31:0] $end
$var wire 1 8 mem_to_reg_M $end
$var wire 1 9 mem_to_reg_E $end
$var wire 32 n instr_F [31:0] $end
$var wire 32 o instr_D [31:0] $end
$var wire 2 p forward_b_E [1:0] $end
$var wire 2 q forward_b_D [1:0] $end
$var wire 2 r forward_a_E [1:0] $end
$var wire 2 s forward_a_D [1:0] $end
$var wire 1 A flush_E $end
$var wire 1 t bne_D $end
$var wire 32 u alu_result_E [31:0] $end
$var reg 3 v alu_ctrl_E [2:0] $end
$var reg 32 w alu_result_M_reg [31:0] $end
$var reg 32 x alu_result_W [31:0] $end
$var reg 1 y alu_src_E $end
$var reg 32 z instr_D_reg [31:0] $end
$var reg 1 9 mem_to_reg_E_reg $end
$var reg 1 8 mem_to_reg_M_reg $end
$var reg 1 { mem_to_reg_W $end
$var reg 1 | mem_write_E $end
$var reg 1 } mem_write_M $end
$var reg 32 ~ pc_plus4_D [31:0] $end
$var reg 32 !" pc_plus4_E [31:0] $end
$var reg 32 "" rd1_E [31:0] $end
$var reg 32 #" rd2_E [31:0] $end
$var reg 5 $" rd_E [4:0] $end
$var reg 32 %" read_data_W [31:0] $end
$var reg 1 &" reg_dst_E $end
$var reg 1 3 reg_write_E_reg $end
$var reg 1 '" reg_write_M_reg $end
$var reg 1 (" reg_write_W_reg $end
$var reg 5 )" rs_E_reg [4:0] $end
$var reg 5 *" rt_E_reg [4:0] $end
$var reg 32 +" sign_imm_E [31:0] $end
$var reg 32 ," write_data_M [31:0] $end
$var reg 5 -" write_reg_M_reg [4:0] $end
$var reg 5 ." write_reg_W_reg [4:0] $end
$scope module u_alu $end
$var wire 3 /" alu_ctrl [2:0] $end
$var wire 32 0" src_a [31:0] $end
$var wire 32 1" src_b [31:0] $end
$var wire 1 Z zero $end
$var reg 32 2" result [31:0] $end
$upscope $end
$scope module u_data_mem $end
$var wire 32 3" addr [31:0] $end
$var wire 1 & clk $end
$var wire 1 } mem_write_en $end
$var wire 32 4" read_data [31:0] $end
$var wire 32 5" write_data [31:0] $end
$upscope $end
$scope module u_imem $end
$var wire 32 6" rd [31:0] $end
$var wire 32 7" addr [31:0] $end
$upscope $end
$scope module u_pc $end
$var wire 1 & clk $end
$var wire 1 8" en $end
$var wire 32 9" pc_next [31:0] $end
$var wire 1 ' rst_n $end
$var reg 32 :" pc [31:0] $end
$upscope $end
$scope module u_reg_file $end
$var wire 1 ;" clk $end
$var wire 5 <" ra1 [4:0] $end
$var wire 5 =" ra2 [4:0] $end
$var wire 5 >" wa3 [4:0] $end
$var wire 32 ?" wd3 [31:0] $end
$var wire 1 U we3 $end
$var wire 32 @" rd2 [31:0] $end
$var wire 32 A" rd1 [31:0] $end
$upscope $end
$upscope $end
$scope module u_hazard $end
$var wire 1 B branch_D $end
$var wire 1 B" branchstall $end
$var wire 1 A flush_E $end
$var wire 1 C" lwstall $end
$var wire 1 9 mem_to_reg_E $end
$var wire 1 8 mem_to_reg_M $end
$var wire 1 3 reg_write_E $end
$var wire 1 2 reg_write_M $end
$var wire 1 1 reg_write_W $end
$var wire 5 D" rs_D [4:0] $end
$var wire 5 E" rs_E [4:0] $end
$var wire 5 F" rt_D [4:0] $end
$var wire 5 G" rt_E [4:0] $end
$var wire 1 , stall_D $end
$var wire 1 + stall_F $end
$var wire 5 H" write_reg_E [4:0] $end
$var wire 5 I" write_reg_M [4:0] $end
$var wire 5 J" write_reg_W [4:0] $end
$var reg 2 K" forward_a_D [1:0] $end
$var reg 2 L" forward_a_E [1:0] $end
$var reg 2 M" forward_b_D [1:0] $end
$var reg 2 N" forward_b_E [1:0] $end
$upscope $end
$upscope $end
$upscope $end
$enddefinitions $end
#0
$dumpvars
b0 N"
b0 M"
b0 L"
b0 K"
b0 J"
b0 I"
b0 H"
b0 G"
b0 F"
b0 E"
b0 D"
0C"
0B"
b0 A"
b0 @"
b0 ?"
b0 >"
b0 ="
b0 <"
1;"
b0 :"
b100 9"
18"
b0 7"
b100000000010000000000000001010 6"
b0 5"
bx 4"
b0 3"
b0 2"
b0 1"
b0 0"
b0 /"
b0 ."
b0 -"
b0 ,"
b0 +"
b0 *"
b0 )"
0("
0'"
0&"
b0 %"
b0 $"
b0 #"
b0 ""
b0 !"
b0 ~
0}
0|
0{
b0 z
0y
b0 x
b0 w
b0 v
b0 u
0t
b0 s
b0 r
b0 q
b0 p
b0 o
b100000000010000000000000001010 n
b0 m
b0 l
b100 k
b100 j
b0 i
b0 h
bx g
b0 f
b0 e
b0 d
b0 c
b0 b
b0 a
b0 `
b0 _
b0 ^
b0 ]
b0 \
b0 [
1Z
b0 Y
b0 X
b0 W
b0 V
0U
0T
b0 S
b0 R
b0 Q
b10 P
b110000010 O
b10 N
b0 M
b10 L
b10 K
b0 J
b10 I
b10 H
b0 G
b0 F
b10 E
b0 D
0C
0B
0A
b0 @
b0 ?
b0 >
b0 =
b0 <
0;
0:
09
08
07
b0 6
15
14
03
02
01
b0 0
b0 /
b0 .
b0 -
0,
0+
b0 *
b0 )
b0 (
0'
0&
b0 %
b0 $
bx #
bx "
bx !
$end
#5000
0;"
1&
#10000
1;"
0&
1'
#15000
bx _
b0 H
b0 K
b0 N
1C
05
b1000 k
b1000 9"
bx h
bx @"
b101000000 O
b100000000010010000000000000101 n
b100000000010010000000000000101 6"
b1000 ="
b1010 b
b1000 .
b1000 d
b1000 F"
b1010 F
b1010 J
b1000 G
b1000 M
b1000 j
b100 $
b100 6
b100 S
b100 m
b100 7"
b100 :"
b101100 l
b100 ~
b100000000010000000000000001010 <
b100000000010000000000000001010 o
b100000000010000000000000001010 z
1&"
b10 v
b10 /"
13
bx %"
0;"
1&
#20000
1;"
0&
#25000
bx ]
0Z
b1010 u
b1010 2"
b1100 k
b1100 9"
b1000 *
b1000 W
b1000 H"
b1000 \
b1010 ^
b1010 1"
b1001 ="
b101 b
b1001 .
b1001 d
b1001 F"
b101 F
b101 J
b10101000010011111111111111101 n
b10101000010011111111111111101 6"
12
1'"
b1000 -
b1000 c
b1000 *"
b1000 G"
b100 !"
b1010 +"
bx #"
0&"
1y
b11100 l
b1000 ~
b100000000010010000000000000101 <
b100000000010010000000000000101 o
b100000000010010000000000000101 z
b1100 j
b1000 $
b1000 6
b1000 S
b1000 m
b1000 7"
b1000 :"
0;"
1&
#30000
1;"
0&
#35000
08"
1+
1,
1A
b110 E
b110 I
b110 L
b110 P
xT
1B"
b1 H
b1 K
b1 N
1B
0C
04
b1010 a
b0x0000 k
b0x0000 9"
bx i
bx A"
b10 @
b10 s
b10 K"
b100001 O
b101 u
b101 2"
b100000000010100000000010011001 n
b100000000010100000000010011001 6"
b1000 <"
b11111111111111111111111111111101 b
b1000 0
b1000 e
b1000 D"
1t
b111101 F
b111101 J
b101 G
b101 M
b1001 *
b1001 W
b1001 H"
b1001 \
b101 ^
b101 1"
b10000 j
b1100 $
b1100 6
b1100 S
b1100 m
b1100 7"
b1100 :"
b0 l
b1100 ~
b10101000010011111111111111101 <
b10101000010011111111111111101 o
b10101000010011111111111111101 z
b1001 -
b1001 c
b1001 *"
b1001 G"
b1000 !"
b101 +"
b1000 )
b1000 [
b1000 -"
b1000 I"
bx ,"
bx 5"
b1010 Q
b1010 w
b1010 3"
1U
11
1("
0;"
1&
#40000
1;"
0&
#45000
b0 k
b0 9"
1T
18"
0+
0,
0A
0B"
b101 _
b0 ]
b1010 %
b1010 D
b1010 R
b1010 f
b1010 ?"
b10 >
b10 q
b10 M"
b1 @
b1 s
b1 K"
b1010 a
b0 *
b0 W
b0 H"
b0 \
1Z
b0 u
b0 2"
b0 ^
b0 1"
b1000 Y
b1000 >"
b1000 (
b1000 X
b1000 J"
b1000 ."
b1010 x
b1001 )
b1001 [
b1001 -"
b1001 I"
b101 Q
b101 w
b101 3"
b0 -
b0 c
b0 *"
b0 G"
b0 #"
b0 +"
b0 !"
b0 v
b0 /"
03
0y
0;"
1&
#50000
b1010 i
b1010 A"
b1010 !
1;"
0&
#55000
b10 E
b10 I
b10 L
b10 P
b0 a
b10 H
b10 K
b10 N
0B
15
14
0T
b101 ^
b101 1"
0Z
b101 u
b101 2"
b0 i
b0 A"
b0 h
b0 @"
b110000010 O
b101 ]
b1010 `
b1010 0"
b100000000010000000000000001010 n
b100000000010000000000000001010 6"
b100 k
b100 9"
b0 <"
b0 ="
b0 b
b0 0
b0 e
b0 D"
b0 .
b0 d
b0 F"
0t
b0 F
b0 J
b0 G
b0 M
b1001 *
b1001 W
b1001 H"
b1001 \
b0 _
b0 >
b0 q
b0 M"
b0 @
b0 s
b0 K"
b1 =
b1 p
b1 N"
b101 %
b101 D
b101 R
b101 f
b101 ?"
b100 j
b0 $
b0 6
b0 S
b0 m
b0 7"
b0 :"
b0 l
b0 ~
b0 <
b0 o
b0 z
b11111 $"
b1001 -
b1001 c
b1001 *"
b1001 G"
b1000 /
b1000 V
b1000 E"
b1000 )"
b1100 !"
b11111111111111111111111111111101 +"
bx #"
b1010 ""
b110 v
b110 /"
b0 )
b0 [
b0 -"
b0 I"
b0 ,"
b0 5"
b0 Q
b0 w
b0 3"
02
0'"
b1001 Y
b1001 >"
b1001 (
b1001 X
b1001 J"
b1001 ."
b101 x
0;"
1&
#60000
b101 "
1;"
0&
#65000
1Z
b0 ^
b0 1"
b1010 _
b0 H
b0 K
b0 N
1C
05
b0 ]
b0 `
b0 0"
b1010 h
b1010 @"
b101000000 O
b1000 k
b1000 9"
b0 %
b0 D
b0 R
b0 f
b0 ?"
b0 =
b0 p
b0 N"
b0 *
b0 W
b0 H"
b0 \
b0 u
b0 2"
b1000 ="
b1010 b
b1000 .
b1000 d
b1000 F"
b1010 F
b1010 J
b1000 G
b1000 M
b100000000010010000000000000101 n
b100000000010010000000000000101 6"
b0 Y
b0 >"
b0 (
b0 X
b0 J"
b0 ."
b0 x
0U
01
0("
b1001 )
b1001 [
b1001 -"
b1001 I"
b101 ,"
b101 5"
b101 Q
b101 w
b101 3"
b0 $"
b0 -
b0 c
b0 *"
b0 G"
b0 /
b0 V
b0 E"
b0 )"
b0 !"
b0 +"
b0 #"
b0 ""
1&"
b10 v
b10 /"
13
b101100 l
b100 ~
b100000000010000000000000001010 <
b100000000010000000000000001010 o
b100000000010000000000000001010 z
b1000 j
b100 $
b100 6
b100 S
b100 m
b100 7"
b100 :"
0;"
1&
#70000
1;"
0&
#75000
b101 _
b1100 k
b1100 9"
b101 h
b101 @"
b1010 ]
0Z
b1010 u
b1010 2"
b10101000010011111111111111101 n
b10101000010011111111111111101 6"
b1001 ="
b101 b
b1001 .
b1001 d
b1001 F"
b101 F
b101 J
b1000 *
b1000 W
b1000 H"
b1000 \
b1010 ^
b1010 1"
b101 %
b101 D
b101 R
b101 f
b101 ?"
b1100 j
b1000 $
b1000 6
b1000 S
b1000 m
b1000 7"
b1000 :"
b11100 l
b1000 ~
b100000000010010000000000000101 <
b100000000010010000000000000101 o
b100000000010010000000000000101 z
b1000 -
b1000 c
b1000 *"
b1000 G"
b100 !"
b1010 +"
b1010 #"
0&"
1y
b0 )
b0 [
b0 -"
b0 I"
b0 ,"
b0 5"
b0 Q
b0 w
b0 3"
12
1'"
b1001 Y
b1001 >"
b1001 (
b1001 X
b1001 J"
b1001 ."
b101 x
0;"
1&
#80000
1;"
0&
#85000
08"
1+
1,
1A
b110 E
b110 I
b110 L
b110 P
1T
1B"
b1 H
b1 K
b1 N
1B
0C
04
b1010 a
b101 u
b101 2"
b101 ]
b1010 i
b1010 A"
b100001 O
b0 k
b0 9"
b0 %
b0 D
b0 R
b0 f
b0 ?"
b10 @
b10 s
b10 K"
b1001 *
b1001 W
b1001 H"
b1001 \
b101 ^
b101 1"
b1000 <"
b11111111111111111111111111111101 b
b1000 0
b1000 e
b1000 D"
1t
b111101 F
b111101 J
b101 G
b101 M
b100000000010100000000010011001 n
b100000000010100000000010011001 6"
b0 Y
b0 >"
b0 (
b0 X
b0 J"
b0 ."
b0 x
1U
11
1("
b1000 )
b1000 [
b1000 -"
b1000 I"
b1010 ,"
b1010 5"
b1010 Q
b1010 w
b1010 3"
b1001 -
b1001 c
b1001 *"
b1001 G"
b1000 !"
b101 +"
b101 #"
b0 l
b1100 ~
b10101000010011111111111111101 <
b10101000010011111111111111101 o
b10101000010011111111111111101 z
b10000 j
b1100 $
b1100 6
b1100 S
b1100 m
b1100 7"
b1100 :"
0;"
1&
#90000
1;"
0&
#95000
18"
0+
0,
0A
b0 ^
b0 1"
0B"
b0 ]
b0 *
b0 W
b0 H"
b0 \
1Z
b0 u
b0 2"
b10 >
b10 q
b10 M"
b1 @
b1 s
b1 K"
b1010 %
b1010 D
b1010 R
b1010 f
b1010 ?"
b0 -
b0 c
b0 *"
b0 G"
b0 #"
b0 +"
b0 !"
b0 v
b0 /"
03
0y
b1001 )
b1001 [
b1001 -"
b1001 I"
b101 ,"
b101 5"
b101 Q
b101 w
b101 3"
b1000 Y
b1000 >"
b1000 (
b1000 X
b1000 J"
b1000 ."
b1010 x
0;"
1&
#100000
1;"
0&
#105000
b10 E
b10 I
b10 L
b10 P
b0 _
b10 H
b10 K
b10 N
0B
15
14
b0 a
b101 ^
b101 1"
0Z
b101 u
b101 2"
0T
b101 ]
b1010 `
b1010 0"
b0 i
b0 A"
b0 h
b0 @"
b110000010 O
b101 %
b101 D
b101 R
b101 f
b101 ?"
b0 >
b0 q
b0 M"
b0 @
b0 s
b0 K"
b1001 *
b1001 W
b1001 H"
b1001 \
b1 =
b1 p
b1 N"
b100 k
b100 9"
b0 <"
b0 ="
b0 b
b0 0
b0 e
b0 D"
b0 .
b0 d
b0 F"
0t
b0 F
b0 J
b0 G
b0 M
b100000000010000000000000001010 n
b100000000010000000000000001010 6"
b1001 Y
b1001 >"
b1001 (
b1001 X
b1001 J"
b1001 ."
b101 x
b0 )
b0 [
b0 -"
b0 I"
b0 ,"
b0 5"
b0 Q
b0 w
b0 3"
02
0'"
b11111 $"
b1001 -
b1001 c
b1001 *"
b1001 G"
b1000 /
b1000 V
b1000 E"
b1000 )"
b1100 !"
b11111111111111111111111111111101 +"
b101 #"
b1010 ""
b110 v
b110 /"
b0 l
b0 ~
b0 <
b0 o
b0 z
b100 j
b0 $
b0 6
b0 S
b0 m
b0 7"
b0 :"
0;"
1&
#110000
1;"
0&
#115000
1Z
b1010 _
b0 H
b0 K
b0 N
1C
05
b0 ^
b0 1"
b0 ]
b1000 k
b1000 9"
b1010 h
b1010 @"
b101000000 O
b0 `
b0 0"
b100000000010010000000000000101 n
b100000000010010000000000000101 6"
b1000 ="
b1010 b
b1000 .
b1000 d
b1000 F"
b1010 F
b1010 J
b1000 G
b1000 M
b0 *
b0 W
b0 H"
b0 \
b0 u
b0 2"
b0 %
b0 D
b0 R
b0 f
b0 ?"
b0 =
b0 p
b0 N"
b1000 j
b100 $
b100 6
b100 S
b100 m
b100 7"
b100 :"
b101100 l
b100 ~
b100000000010000000000000001010 <
b100000000010000000000000001010 o
b100000000010000000000000001010 z
b0 $"
b0 -
b0 c
b0 *"
b0 G"
b0 /
b0 V
b0 E"
b0 )"
b0 !"
b0 +"
b0 #"
b0 ""
1&"
b10 v
b10 /"
13
b1001 )
b1001 [
b1001 -"
b1001 I"
b101 ,"
b101 5"
b101 Q
b101 w
b101 3"
b0 Y
b0 >"
b0 (
b0 X
b0 J"
b0 ."
b0 x
0U
01
0("
0;"
1&
#120000
1;"
0&
#125000
b101 _
b1010 ]
0Z
b1010 u
b1010 2"
b101 h
b101 @"
b1100 k
b1100 9"
b101 %
b101 D
b101 R
b101 f
b101 ?"
b1000 *
b1000 W
b1000 H"
b1000 \
b1010 ^
b1010 1"
b1001 ="
b101 b
b1001 .
b1001 d
b1001 F"
b101 F
b101 J
b10101000010011111111111111101 n
b10101000010011111111111111101 6"
b1001 Y
b1001 >"
b1001 (
b1001 X
b1001 J"
b1001 ."
b101 x
b0 )
b0 [
b0 -"
b0 I"
b0 ,"
b0 5"
b0 Q
b0 w
b0 3"
12
1'"
b1000 -
b1000 c
b1000 *"
b1000 G"
b100 !"
b1010 +"
b1010 #"
0&"
1y
b11100 l
b1000 ~
b100000000010010000000000000101 <
b100000000010010000000000000101 o
b100000000010010000000000000101 z
b1100 j
b1000 $
b1000 6
b1000 S
b1000 m
b1000 7"
b1000 :"
0;"
1&
#130000
1;"
0&
#135000
08"
1+
1,
1A
b110 E
b110 I
b110 L
b110 P
1T
1B"
b1 H
b1 K
b1 N
1B
0C
04
b1010 a
b0 k
b0 9"
b1010 i
b1010 A"
b10 @
b10 s
b10 K"
b100001 O
b101 u
b101 2"
b101 ]
b100000000010100000000010011001 n
b100000000010100000000010011001 6"
b1000 <"
b11111111111111111111111111111101 b
b1000 0
b1000 e
b1000 D"
1t
b111101 F
b111101 J
b101 G
b101 M
b1001 *
b1001 W
b1001 H"
b1001 \
b101 ^
b101 1"
b0 %
b0 D
b0 R
b0 f
b0 ?"
b10000 j
b1100 $
b1100 6
b1100 S
b1100 m
b1100 7"
b1100 :"
b0 l
b1100 ~
b10101000010011111111111111101 <
b10101000010011111111111111101 o
b10101000010011111111111111101 z
b1001 -
b1001 c
b1001 *"
b1001 G"
b1000 !"
b101 +"
b101 #"
b1000 )
b1000 [
b1000 -"
b1000 I"
b1010 ,"
b1010 5"
b1010 Q
b1010 w
b1010 3"
b0 Y
b0 >"
b0 (
b0 X
b0 J"
b0 ."
b0 x
1U
11
1("
0;"
1&
#140000
1;"
0&
#145000
b0 k
b0 9"
18"
1T
0+
0,
0A
b0 ^
b0 1"
0B"
b0 ]
b1010 %
b1010 D
b1010 R
b1010 f
b1010 ?"
b10 >
b10 q
b10 M"
b1 @
b1 s
b1 K"
b1010 a
b0 *
b0 W
b0 H"
b0 \
1Z
b0 u
b0 2"
b1000 Y
b1000 >"
b1000 (
b1000 X
b1000 J"
b1000 ."
b1010 x
b1001 )
b1001 [
b1001 -"
b1001 I"
b101 ,"
b101 5"
b101 Q
b101 w
b101 3"
b0 -
b0 c
b0 *"
b0 G"
b0 #"
b0 +"
b0 !"
b0 v
b0 /"
03
0y
0;"
1&
#150000
1;"
0&
#155000
b10 E
b10 I
b10 L
b10 P
b0 a
b0 _
b10 H
b10 K
b10 N
0B
15
14
0T
b101 ^
b101 1"
0Z
b101 u
b101 2"
b0 i
b0 A"
b0 h
b0 @"
b110000010 O
b101 ]
b1010 `
b1010 0"
b100000000010000000000000001010 n
b100000000010000000000000001010 6"
b100 k
b100 9"
b0 <"
b0 ="
b0 b
b0 0
b0 e
b0 D"
b0 .
b0 d
b0 F"
0t
b0 F
b0 J
b0 G
b0 M
b1001 *
b1001 W
b1001 H"
b1001 \
b0 >
b0 q
b0 M"
b0 @
b0 s
b0 K"
b1 =
b1 p
b1 N"
b101 %
b101 D
b101 R
b101 f
b101 ?"
b100 j
b0 $
b0 6
b0 S
b0 m
b0 7"
b0 :"
b0 l
b0 ~
b0 <
b0 o
b0 z
b11111 $"
b1001 -
b1001 c
b1001 *"
b1001 G"
b1000 /
b1000 V
b1000 E"
b1000 )"
b1100 !"
b11111111111111111111111111111101 +"
b101 #"
b1010 ""
b110 v
b110 /"
b0 )
b0 [
b0 -"
b0 I"
b0 ,"
b0 5"
b0 Q
b0 w
b0 3"
02
0'"
b1001 Y
b1001 >"
b1001 (
b1001 X
b1001 J"
b1001 ."
b101 x
0;"
1&
#160000
1;"
0&
#165000
1Z
b0 ^
b0 1"
b1010 _
b0 H
b0 K
b0 N
1C
05
b0 ]
b0 `
b0 0"
b1010 h
b1010 @"
b101000000 O
b1000 k
b1000 9"
b0 %
b0 D
b0 R
b0 f
b0 ?"
b0 =
b0 p
b0 N"
b0 *
b0 W
b0 H"
b0 \
b0 u
b0 2"
b1000 ="
b1010 b
b1000 .
b1000 d
b1000 F"
b1010 F
b1010 J
b1000 G
b1000 M
b100000000010010000000000000101 n
b100000000010010000000000000101 6"
b0 Y
b0 >"
b0 (
b0 X
b0 J"
b0 ."
b0 x
0U
01
0("
b1001 )
b1001 [
b1001 -"
b1001 I"
b101 ,"
b101 5"
b101 Q
b101 w
b101 3"
b0 $"
b0 -
b0 c
b0 *"
b0 G"
b0 /
b0 V
b0 E"
b0 )"
b0 !"
b0 +"
b0 #"
b0 ""
1&"
b10 v
b10 /"
13
b101100 l
b100 ~
b100000000010000000000000001010 <
b100000000010000000000000001010 o
b100000000010000000000000001010 z
b1000 j
b100 $
b100 6
b100 S
b100 m
b100 7"
b100 :"
0;"
1&
#170000
1;"
0&
#175000
b101 _
b1100 k
b1100 9"
b101 h
b101 @"
b1010 ]
0Z
b1010 u
b1010 2"
b10101000010011111111111111101 n
b10101000010011111111111111101 6"
b1001 ="
b101 b
b1001 .
b1001 d
b1001 F"
b101 F
b101 J
b1000 *
b1000 W
b1000 H"
b1000 \
b1010 ^
b1010 1"
b101 %
b101 D
b101 R
b101 f
b101 ?"
b1100 j
b1000 $
b1000 6
b1000 S
b1000 m
b1000 7"
b1000 :"
b11100 l
b1000 ~
b100000000010010000000000000101 <
b100000000010010000000000000101 o
b100000000010010000000000000101 z
b1000 -
b1000 c
b1000 *"
b1000 G"
b100 !"
b1010 +"
b1010 #"
0&"
1y
b0 )
b0 [
b0 -"
b0 I"
b0 ,"
b0 5"
b0 Q
b0 w
b0 3"
12
1'"
b1001 Y
b1001 >"
b1001 (
b1001 X
b1001 J"
b1001 ."
b101 x
0;"
1&
#180000
1;"
0&
#185000
08"
1+
1,
1A
b110 E
b110 I
b110 L
b110 P
1T
1B"
b1 H
b1 K
b1 N
1B
0C
04
b1010 a
b101 u
b101 2"
b101 ]
b1010 i
b1010 A"
b100001 O
b0 k
b0 9"
b0 %
b0 D
b0 R
b0 f
b0 ?"
b10 @
b10 s
b10 K"
b1001 *
b1001 W
b1001 H"
b1001 \
b101 ^
b101 1"
b1000 <"
b11111111111111111111111111111101 b
b1000 0
b1000 e
b1000 D"
1t
b111101 F
b111101 J
b101 G
b101 M
b100000000010100000000010011001 n
b100000000010100000000010011001 6"
b0 Y
b0 >"
b0 (
b0 X
b0 J"
b0 ."
b0 x
1U
11
1("
b1000 )
b1000 [
b1000 -"
b1000 I"
b1010 ,"
b1010 5"
b1010 Q
b1010 w
b1010 3"
b1001 -
b1001 c
b1001 *"
b1001 G"
b1000 !"
b101 +"
b101 #"
b0 l
b1100 ~
b10101000010011111111111111101 <
b10101000010011111111111111101 o
b10101000010011111111111111101 z
b10000 j
b1100 $
b1100 6
b1100 S
b1100 m
b1100 7"
b1100 :"
0;"
1&
#190000
1;"
0&
#195000
18"
0+
0,
0A
b0 ^
b0 1"
0B"
b0 ]
b0 *
b0 W
b0 H"
b0 \
1Z
b0 u
b0 2"
b10 >
b10 q
b10 M"
b1 @
b1 s
b1 K"
b1010 %
b1010 D
b1010 R
b1010 f
b1010 ?"
b0 -
b0 c
b0 *"
b0 G"
b0 #"
b0 +"
b0 !"
b0 v
b0 /"
03
0y
b1001 )
b1001 [
b1001 -"
b1001 I"
b101 ,"
b101 5"
b101 Q
b101 w
b101 3"
b1000 Y
b1000 >"
b1000 (
b1000 X
b1000 J"
b1000 ."
b1010 x
0;"
1&
#200000
1;"
0&
#205000
b10 E
b10 I
b10 L
b10 P
b0 _
b10 H
b10 K
b10 N
0B
15
14
b0 a
b101 ^
b101 1"
0Z
b101 u
b101 2"
0T
b101 ]
b1010 `
b1010 0"
b0 i
b0 A"
b0 h
b0 @"
b110000010 O
b101 %
b101 D
b101 R
b101 f
b101 ?"
b0 >
b0 q
b0 M"
b0 @
b0 s
b0 K"
b1001 *
b1001 W
b1001 H"
b1001 \
b1 =
b1 p
b1 N"
b100 k
b100 9"
b0 <"
b0 ="
b0 b
b0 0
b0 e
b0 D"
b0 .
b0 d
b0 F"
0t
b0 F
b0 J
b0 G
b0 M
b100000000010000000000000001010 n
b100000000010000000000000001010 6"
b1001 Y
b1001 >"
b1001 (
b1001 X
b1001 J"
b1001 ."
b101 x
b0 )
b0 [
b0 -"
b0 I"
b0 ,"
b0 5"
b0 Q
b0 w
b0 3"
02
0'"
b11111 $"
b1001 -
b1001 c
b1001 *"
b1001 G"
b1000 /
b1000 V
b1000 E"
b1000 )"
b1100 !"
b11111111111111111111111111111101 +"
b101 #"
b1010 ""
b110 v
b110 /"
b0 l
b0 ~
b0 <
b0 o
b0 z
b100 j
b0 $
b0 6
b0 S
b0 m
b0 7"
b0 :"
0;"
1&
#210000
1;"
0&
